{
    "pagination": {
      "last_visible_page": 36,
      "has_next_page": true,
      "current_page": 1,
      "items": { "count": 1, "total": 36, "per_page": 1 }
    },
    "data": [
      {
        "mal_id": 50184,
        "url": "https://myanimelist.net/anime/50184/Seiken_Gakuin_no_Makentsukai",
        "images": {
          "jpg": {
            "image_url": "https://cdn.myanimelist.net/images/anime/1506/138529.jpg",
            "small_image_url": "https://cdn.myanimelist.net/images/anime/1506/138529t.jpg",
            "large_image_url": "https://cdn.myanimelist.net/images/anime/1506/138529l.jpg"
          },
          "webp": {
            "image_url": "https://cdn.myanimelist.net/images/anime/1506/138529.webp",
            "small_image_url": "https://cdn.myanimelist.net/images/anime/1506/138529t.webp",
            "large_image_url": "https://cdn.myanimelist.net/images/anime/1506/138529l.webp"
          }
        },
        "trailer": {
          "youtube_id": "6uDwQo6AZAU",
          "url": "https://www.youtube.com/watch?v=6uDwQo6AZAU",
          "embed_url": "https://www.youtube.com/embed/6uDwQo6AZAU?enablejsapi=1&wmode=opaque&autoplay=1",
          "images": {
            "image_url": "https://img.youtube.com/vi/6uDwQo6AZAU/default.jpg",
            "small_image_url": "https://img.youtube.com/vi/6uDwQo6AZAU/sddefault.jpg",
            "medium_image_url": "https://img.youtube.com/vi/6uDwQo6AZAU/mqdefault.jpg",
            "large_image_url": "https://img.youtube.com/vi/6uDwQo6AZAU/hqdefault.jpg",
            "maximum_image_url": "https://img.youtube.com/vi/6uDwQo6AZAU/maxresdefault.jpg"
          }
        },
        "approved": true,
        "titles": [
          { "type": "Default", "title": "Seiken Gakuin no Makentsukai" },
          {
            "type": "Synonym",
            "title": "Magic Sword Master of Holy Sword School"
          },
          {
            "type": "Japanese",
            "title": "\u8056\u5263\u5b66\u9662\u306e\u9b54\u5263\u4f7f\u3044"
          },
          {
            "type": "English",
            "title": "The Demon Sword Master of Excalibur Academy"
          }
        ],
        "title": "Seiken Gakuin no Makentsukai",
        "title_english": "The Demon Sword Master of Excalibur Academy",
        "title_japanese": "\u8056\u5263\u5b66\u9662\u306e\u9b54\u5263\u4f7f\u3044",
        "title_synonyms": ["Magic Sword Master of Holy Sword School"],
        "type": "TV",
        "source": "Light novel",
        "episodes": 12,
        "status": "Currently Airing",
        "airing": true,
        "aired": {
          "from": "2023-10-03T00:00:00+00:00",
          "to": null,
          "prop": {
            "from": { "day": 3, "month": 10, "year": 2023 },
            "to": { "day": null, "month": null, "year": null }
          },
          "string": "Oct 3, 2023 to ?"
        },
        "duration": "23 min per ep",
        "rating": "PG-13 - Teens 13 or older",
        "score": 6.74,
        "scored_by": 11082,
        "rank": 5332,
        "popularity": 2225,
        "members": 84353,
        "favorites": 676,
        "synopsis": "Battles for ancient kingdoms are nothing compared to the battles of a classroom!\n\nAwakening from magical stasis after a thousand years, the Dark Lord Leonis suddenly finds himself in the body of a ten-year-old boy! He quickly meets Riselia, a girl confronting the Voids, creatures that have nearly exterminated humanity. Determined to uncover the mysteries of this strange new era, Leonis enrolls in Excalibur Academy, a school that trains students to fight back against these enigmatic monsters. Could the Voids hold some connection to Leonis's past? \n\n(Source: Yen Press)",
        "background": "Each episode was streamed one week in advance of the TV broadcast starting on September 26, 2023, on ABEMA Premium. Regular broadcasting began on October 3, 2023.",
        "season": "fall",
        "year": 2023,
        "broadcast": {
          "day": "Tuesdays",
          "time": "01:30",
          "timezone": "Asia/Tokyo",
          "string": "Tuesdays at 01:30 (JST)"
        },
        "producers": [
          {
            "mal_id": 135,
            "type": "anime",
            "name": "MediaNet",
            "url": "https://myanimelist.net/anime/producer/135/MediaNet"
          },
          {
            "mal_id": 323,
            "type": "anime",
            "name": "Nippon Columbia",
            "url": "https://myanimelist.net/anime/producer/323/Nippon_Columbia"
          },
          {
            "mal_id": 460,
            "type": "anime",
            "name": "KlockWorx",
            "url": "https://myanimelist.net/anime/producer/460/KlockWorx"
          },
          {
            "mal_id": 843,
            "type": "anime",
            "name": "BS Fuji",
            "url": "https://myanimelist.net/anime/producer/843/BS_Fuji"
          },
          {
            "mal_id": 1113,
            "type": "anime",
            "name": "NBCUniversal Entertainment Japan",
            "url": "https://myanimelist.net/anime/producer/1113/NBCUniversal_Entertainment_Japan"
          },
          {
            "mal_id": 1696,
            "type": "anime",
            "name": "Kadokawa",
            "url": "https://myanimelist.net/anime/producer/1696/Kadokawa"
          },
          {
            "mal_id": 2236,
            "type": "anime",
            "name": "CTW",
            "url": "https://myanimelist.net/anime/producer/2236/CTW"
          },
          {
            "mal_id": 2843,
            "type": "anime",
            "name": "Plus Seven",
            "url": "https://myanimelist.net/anime/producer/2843/Plus_Seven"
          }
        ],
        "licensors": [
          {
            "mal_id": 376,
            "type": "anime",
            "name": "Sentai Filmworks",
            "url": "https://myanimelist.net/anime/producer/376/Sentai_Filmworks"
          }
        ],
        "studios": [
          {
            "mal_id": 911,
            "type": "anime",
            "name": "Passione",
            "url": "https://myanimelist.net/anime/producer/911/Passione"
          }
        ],
        "genres": [
          {
            "mal_id": 1,
            "type": "anime",
            "name": "Action",
            "url": "https://myanimelist.net/anime/genre/1/Action"
          },
          {
            "mal_id": 10,
            "type": "anime",
            "name": "Fantasy",
            "url": "https://myanimelist.net/anime/genre/10/Fantasy"
          }
        ],
        "explicit_genres": [],
        "themes": [
          {
            "mal_id": 35,
            "type": "anime",
            "name": "Harem",
            "url": "https://myanimelist.net/anime/genre/35/Harem"
          },
          {
            "mal_id": 72,
            "type": "anime",
            "name": "Reincarnation",
            "url": "https://myanimelist.net/anime/genre/72/Reincarnation"
          },
          {
            "mal_id": 23,
            "type": "anime",
            "name": "School",
            "url": "https://myanimelist.net/anime/genre/23/School"
          }
        ],
        "demographics": []
      }
    ]
  }
  